MATH 421 - Midterm Projects: RI Hospital Data
…
── Attaching core tidyverse packages ──────────────────────── tidyverse 2.0.0 ──
✔ dplyr     1.1.3     ✔ readr     2.1.4
✔ forcats   1.0.0     ✔ stringr   1.5.0
✔ ggplot2   3.4.3     ✔ tibble    3.2.1
✔ lubridate 1.9.2     ✔ tidyr     1.3.0
✔ purrr     1.0.2     
── Conflicts ────────────────────────────────────────── tidyverse_conflicts() ──
✖ dplyr::filter() masks stats::filter()
✖ dplyr::lag()    masks stats::lag()
ℹ Use the conflicted package (<http://conflicted.r-lib.org/>) to force all conflicts to become errors

data %>%
  filter(yod == 18)

# A tibble: 131,478 × 135
     yod payfix pay_ub92   age sex   raceethn filler1 filler2 provider   moa
   <dbl>  <dbl>    <dbl> <dbl> <chr> <chr>    <chr>   <chr>   <chr>    <dbl>
 1    18     NA        9     0 1     1        ""      ""      7214         1
 2    18     NA        2    76 2     1        ""      ""      7214         1
 3    18     NA        6    50 2     1        ""      ""      7214        12
 4    18     NA        4     0 1     7        ""      ""      7214         1
 5    18     NA       13     0 1     1        ""      ""      7214        12
 6    18     NA        4     0 2     9        ""      ""      7214        12
 7    18     NA        4     0 2     1        ""      ""      7214         1
 8    18     NA       13     0 2     1        ""      ""      7214         1
 9    18     NA        1    70 2     1        ""      ""      7214         1
10    18     NA        9    25 2     1        ""      ""      7214        12
# ℹ 131,468 more rows
# ℹ 125 more variables: yoa <dbl>, mod <dbl>, admtype <chr>, asource <chr>,
#   filler3 <chr>, dx1 <chr>, dx2 <chr>, dx3 <chr>, dx4 <chr>, dx5 <chr>,
#   dx6 <chr>, dx7 <chr>, px1 <chr>, px2 <chr>, px3 <chr>, px4 <chr>,
#   px5 <chr>, px6 <chr>, px7 <chr>, px8 <chr>, px9 <chr>, px10 <chr>,
#   preopday <dbl>, los <dbl>, filler4 <chr>, service <chr>, icu <chr>,
#   ccu <chr>, dispub92 <chr>, payer <chr>, drg <dbl>, trandb <chr>, …
…
